Malformed header

    1    0.000000    0.000000    0.000000
    4    0.283459    0.000000    0.000000
   -4    0.000000    0.283459    0.000000
    4    0.000000    0.000000    0.283459
    1    0.000000    0.5         0.5        0.5
