SIRIUS 7.2.6, git hash: 513e0685d37b4a815112285492bc99db25a9b9b8
MPI rank placement
------------------
rank:   0, comm_band_rank:   0, comm_k_rank:   0, hostname: myrte, mpi processor name: myrte

SIRIUS version : 7.2.6
git hash       : 513e0685d37b4a815112285492bc99db25a9b9b8
git branch     : tags/v7.2.6
build time     : 2021-09-10 11:29:57
start time     : Fri, 10 Sep 2021 11:58:04

number of MPI ranks           : 1
MPI grid                      : 1 1 1
maximum number of OMP threads : 8
number of MPI ranks per node  : 1
page size (Kb)                : 4
number of pages               : 4081859
available memory (GB)         : 15

FFT context for density and potential
=====================================
  comm size                             : 1
  plane wave cutoff                     : 12.000000
  grid size                             : 24 24 24   total : 13824
  grid limits                           : -11 12   -11 12   -11 12
  number of G-vectors within the cutoff : 3743
  local number of G-vectors             : 3743
  number of G-shells                    : 79

FFT context for coarse grid
=====================================
  comm size                             : 1
  plane wave cutoff                     : 6.000000
  grid size                             : 12 12 12   total : 1728
  grid limits                           : -5 6   -5 6   -5 6
  number of G-vectors within the cutoff : 461
  local number of G-vectors             : 461
  number of G-shells                    : 21

number of local G-vector blocks: 1

Unit cell
--------------------------------------------------------------------------------
lattice vectors
  a1 :       5.0000000000       0.0000000000       0.0000000000 
  a2 :       0.0000000000       5.0000000000       0.0000000000 
  a3 :       0.0000000000       0.0000000000       5.0000000000 
reciprocal lattice vectors
  b1 :       1.2566370614       0.0000000000       0.0000000000 
  b2 :       0.0000000000       1.2566370614       0.0000000000 
  b3 :       0.0000000000       0.0000000000       1.2566370614 

unit cell volume :       125.00000000 [a.u.^3]
1/sqrt(omega)    :         0.08944272
MT volume        : 44.602238 (35.68%)
IT volume        : 80.397762 (64.32%)

number of atom types : 1
type id : 0   symbol : Si   mt_radius :   2.200000, num_atoms: 1
total number of atoms : 1
number of symmetry classes : 1

atom id              position                    vector_field        type id    class id
----------------------------------------------------------------------------------------
     0      2.500000 2.500000 2.500000   0.000000 0.000000 0.000000        0           0

class id : 0   atom id : 0 

atom id              position (Cartesian, a.u.)
----------------------------------------------------------------------------------------
     0         12.500000000000    12.500000000000    12.500000000000

class id : 0   atom id : 0 

minimum bond length:       5.000000000000

space group number   : 221
international symbol : Pm-3m
Hall symbol          : -P 4 2 3
space group transformation matrix : 
    1.000000     0.000000     0.000000 
    0.000000     1.000000     0.000000 
    0.000000     0.000000     1.000000 
space group origin shift : 
    0.000000     0.000000     0.000000
number of space group operations  : 48
number of magnetic group operations : 48
metric tensor error:     0.000000000000
rotation matrix error:     0.000000000000
symmetry operations  : 
isym : 0
R :   1   0   0 
      0   1   0 
      0   0   1 
Rc:   1.0000   0.0000   0.0000 
      0.0000   1.0000   0.0000 
      0.0000   0.0000   1.0000 
t :   0.0000   0.0000   0.0000 
S :   1.0000   0.0000   0.0000 
      0.0000   1.0000   0.0000 
      0.0000   0.0000   1.0000 
proper: 1

isym : 1
R :  -1   0   0 
      0  -1   0 
      0   0  -1 
Rc:  -1.0000   0.0000   0.0000 
      0.0000  -1.0000   0.0000 
      0.0000   0.0000  -1.0000 
t :   0.0000   0.0000   0.0000 
S :   1.0000   0.0000   0.0000 
      0.0000   1.0000   0.0000 
      0.0000   0.0000   1.0000 
proper: -1

isym : 2
R :   0  -1   0 
      1   0   0 
      0   0   1 
Rc:   0.0000  -1.0000   0.0000 
      1.0000   0.0000   0.0000 
      0.0000   0.0000   1.0000 
t :   0.0000   0.0000   0.0000 
S :   1.0000   0.0000   0.0000 
      0.0000   1.0000   0.0000 
      0.0000   0.0000   1.0000 
proper: 1

isym : 3
R :   0   1   0 
     -1   0   0 
      0   0  -1 
Rc:   0.0000   1.0000   0.0000 
     -1.0000   0.0000   0.0000 
      0.0000   0.0000  -1.0000 
t :   0.0000   0.0000   0.0000 
S :   1.0000   0.0000   0.0000 
      0.0000   1.0000   0.0000 
      0.0000   0.0000   1.0000 
proper: -1

isym : 4
R :  -1   0   0 
      0  -1   0 
      0   0   1 
Rc:  -1.0000   0.0000   0.0000 
      0.0000  -1.0000   0.0000 
      0.0000   0.0000   1.0000 
t :   0.0000   0.0000   0.0000 
S :   1.0000   0.0000   0.0000 
      0.0000   1.0000   0.0000 
      0.0000   0.0000   1.0000 
proper: 1

isym : 5
R :   1   0   0 
      0   1   0 
      0   0  -1 
Rc:   1.0000   0.0000   0.0000 
      0.0000   1.0000   0.0000 
      0.0000   0.0000  -1.0000 
t :   0.0000   0.0000   0.0000 
S :   1.0000   0.0000   0.0000 
      0.0000   1.0000   0.0000 
      0.0000   0.0000   1.0000 
proper: -1

isym : 6
R :   0   1   0 
     -1   0   0 
      0   0   1 
Rc:   0.0000   1.0000   0.0000 
     -1.0000   0.0000   0.0000 
      0.0000   0.0000   1.0000 
t :   0.0000   0.0000   0.0000 
S :   1.0000   0.0000   0.0000 
      0.0000   1.0000   0.0000 
      0.0000   0.0000   1.0000 
proper: 1

isym : 7
R :   0  -1   0 
      1   0   0 
      0   0  -1 
Rc:   0.0000  -1.0000   0.0000 
      1.0000   0.0000   0.0000 
      0.0000   0.0000  -1.0000 
t :   0.0000   0.0000   0.0000 
S :   1.0000   0.0000   0.0000 
      0.0000   1.0000   0.0000 
      0.0000   0.0000   1.0000 
proper: -1

isym : 8
R :   1   0   0 
      0  -1   0 
      0   0  -1 
Rc:   1.0000   0.0000   0.0000 
      0.0000  -1.0000   0.0000 
      0.0000   0.0000  -1.0000 
t :   0.0000   0.0000   0.0000 
S :   1.0000   0.0000   0.0000 
      0.0000   1.0000   0.0000 
      0.0000   0.0000   1.0000 
proper: 1

isym : 9
R :  -1   0   0 
      0   1   0 
      0   0   1 
Rc:  -1.0000   0.0000   0.0000 
      0.0000   1.0000   0.0000 
      0.0000   0.0000   1.0000 
t :   0.0000   0.0000   0.0000 
S :   1.0000   0.0000   0.0000 
      0.0000   1.0000   0.0000 
      0.0000   0.0000   1.0000 
proper: -1

isym : 10
R :   0  -1   0 
     -1   0   0 
      0   0  -1 
Rc:   0.0000  -1.0000   0.0000 
     -1.0000   0.0000   0.0000 
      0.0000   0.0000  -1.0000 
t :   0.0000   0.0000   0.0000 
S :   1.0000   0.0000   0.0000 
      0.0000   1.0000   0.0000 
      0.0000   0.0000   1.0000 
proper: 1

isym : 11
R :   0   1   0 
      1   0   0 
      0   0   1 
Rc:   0.0000   1.0000   0.0000 
      1.0000   0.0000   0.0000 
      0.0000   0.0000   1.0000 
t :   0.0000   0.0000   0.0000 
S :   1.0000   0.0000   0.0000 
      0.0000   1.0000   0.0000 
      0.0000   0.0000   1.0000 
proper: -1

isym : 12
R :  -1   0   0 
      0   1   0 
      0   0  -1 
Rc:  -1.0000   0.0000   0.0000 
      0.0000   1.0000   0.0000 
      0.0000   0.0000  -1.0000 
t :   0.0000   0.0000   0.0000 
S :   1.0000   0.0000   0.0000 
      0.0000   1.0000   0.0000 
      0.0000   0.0000   1.0000 
proper: 1

isym : 13
R :   1   0   0 
      0  -1   0 
      0   0   1 
Rc:   1.0000   0.0000   0.0000 
      0.0000  -1.0000   0.0000 
      0.0000   0.0000   1.0000 
t :   0.0000   0.0000   0.0000 
S :   1.0000   0.0000   0.0000 
      0.0000   1.0000   0.0000 
      0.0000   0.0000   1.0000 
proper: -1

isym : 14
R :   0   1   0 
      1   0   0 
      0   0  -1 
Rc:   0.0000   1.0000   0.0000 
      1.0000   0.0000   0.0000 
      0.0000   0.0000  -1.0000 
t :   0.0000   0.0000   0.0000 
S :   1.0000   0.0000   0.0000 
      0.0000   1.0000   0.0000 
      0.0000   0.0000   1.0000 
proper: 1

isym : 15
R :   0  -1   0 
     -1   0   0 
      0   0   1 
Rc:   0.0000  -1.0000   0.0000 
     -1.0000   0.0000   0.0000 
      0.0000   0.0000   1.0000 
t :   0.0000   0.0000   0.0000 
S :   1.0000   0.0000   0.0000 
      0.0000   1.0000   0.0000 
      0.0000   0.0000   1.0000 
proper: -1

isym : 16
R :   0   0   1 
      1   0   0 
      0   1   0 
Rc:   0.0000   0.0000   1.0000 
      1.0000   0.0000   0.0000 
      0.0000   1.0000   0.0000 
t :   0.0000   0.0000   0.0000 
S :   1.0000   0.0000   0.0000 
      0.0000   1.0000   0.0000 
      0.0000   0.0000   1.0000 
proper: 1

isym : 17
R :   0   0  -1 
     -1   0   0 
      0  -1   0 
Rc:   0.0000   0.0000  -1.0000 
     -1.0000   0.0000   0.0000 
      0.0000  -1.0000   0.0000 
t :   0.0000   0.0000   0.0000 
S :   1.0000   0.0000   0.0000 
      0.0000   1.0000   0.0000 
      0.0000   0.0000   1.0000 
proper: -1

isym : 18
R :   0   0   1 
      0  -1   0 
      1   0   0 
Rc:   0.0000   0.0000   1.0000 
      0.0000  -1.0000   0.0000 
      1.0000   0.0000   0.0000 
t :   0.0000   0.0000   0.0000 
S :   1.0000   0.0000   0.0000 
      0.0000   1.0000   0.0000 
      0.0000   0.0000   1.0000 
proper: 1

isym : 19
R :   0   0  -1 
      0   1   0 
     -1   0   0 
Rc:   0.0000   0.0000  -1.0000 
      0.0000   1.0000   0.0000 
     -1.0000   0.0000   0.0000 
t :   0.0000   0.0000   0.0000 
S :   1.0000   0.0000   0.0000 
      0.0000   1.0000   0.0000 
      0.0000   0.0000   1.0000 
proper: -1

isym : 20
R :   0   0   1 
     -1   0   0 
      0  -1   0 
Rc:   0.0000   0.0000   1.0000 
     -1.0000   0.0000   0.0000 
      0.0000  -1.0000   0.0000 
t :   0.0000   0.0000   0.0000 
S :   1.0000   0.0000   0.0000 
      0.0000   1.0000   0.0000 
      0.0000   0.0000   1.0000 
proper: 1

isym : 21
R :   0   0  -1 
      1   0   0 
      0   1   0 
Rc:   0.0000   0.0000  -1.0000 
      1.0000   0.0000   0.0000 
      0.0000   1.0000   0.0000 
t :   0.0000   0.0000   0.0000 
S :   1.0000   0.0000   0.0000 
      0.0000   1.0000   0.0000 
      0.0000   0.0000   1.0000 
proper: -1

isym : 22
R :   0   0   1 
      0   1   0 
     -1   0   0 
Rc:   0.0000   0.0000   1.0000 
      0.0000   1.0000   0.0000 
     -1.0000   0.0000   0.0000 
t :   0.0000   0.0000   0.0000 
S :   1.0000   0.0000   0.0000 
      0.0000   1.0000   0.0000 
      0.0000   0.0000   1.0000 
proper: 1

isym : 23
R :   0   0  -1 
      0  -1   0 
      1   0   0 
Rc:   0.0000   0.0000  -1.0000 
      0.0000  -1.0000   0.0000 
      1.0000   0.0000   0.0000 
t :   0.0000   0.0000   0.0000 
S :   1.0000   0.0000   0.0000 
      0.0000   1.0000   0.0000 
      0.0000   0.0000   1.0000 
proper: -1

isym : 24
R :   0   0  -1 
      1   0   0 
      0  -1   0 
Rc:   0.0000   0.0000  -1.0000 
      1.0000   0.0000   0.0000 
      0.0000  -1.0000   0.0000 
t :   0.0000   0.0000   0.0000 
S :   1.0000   0.0000   0.0000 
      0.0000   1.0000   0.0000 
      0.0000   0.0000   1.0000 
proper: 1

isym : 25
R :   0   0   1 
     -1   0   0 
      0   1   0 
Rc:   0.0000   0.0000   1.0000 
     -1.0000   0.0000   0.0000 
      0.0000   1.0000   0.0000 
t :   0.0000   0.0000   0.0000 
S :   1.0000   0.0000   0.0000 
      0.0000   1.0000   0.0000 
      0.0000   0.0000   1.0000 
proper: -1

isym : 26
R :   0   0  -1 
      0  -1   0 
     -1   0   0 
Rc:   0.0000   0.0000  -1.0000 
      0.0000  -1.0000   0.0000 
     -1.0000   0.0000   0.0000 
t :   0.0000   0.0000   0.0000 
S :   1.0000   0.0000   0.0000 
      0.0000   1.0000   0.0000 
      0.0000   0.0000   1.0000 
proper: 1

isym : 27
R :   0   0   1 
      0   1   0 
      1   0   0 
Rc:   0.0000   0.0000   1.0000 
      0.0000   1.0000   0.0000 
      1.0000   0.0000   0.0000 
t :   0.0000   0.0000   0.0000 
S :   1.0000   0.0000   0.0000 
      0.0000   1.0000   0.0000 
      0.0000   0.0000   1.0000 
proper: -1

isym : 28
R :   0   0  -1 
     -1   0   0 
      0   1   0 
Rc:   0.0000   0.0000  -1.0000 
     -1.0000   0.0000   0.0000 
      0.0000   1.0000   0.0000 
t :   0.0000   0.0000   0.0000 
S :   1.0000   0.0000   0.0000 
      0.0000   1.0000   0.0000 
      0.0000   0.0000   1.0000 
proper: 1

isym : 29
R :   0   0   1 
      1   0   0 
      0  -1   0 
Rc:   0.0000   0.0000   1.0000 
      1.0000   0.0000   0.0000 
      0.0000  -1.0000   0.0000 
t :   0.0000   0.0000   0.0000 
S :   1.0000   0.0000   0.0000 
      0.0000   1.0000   0.0000 
      0.0000   0.0000   1.0000 
proper: -1

isym : 30
R :   0   0  -1 
      0   1   0 
      1   0   0 
Rc:   0.0000   0.0000  -1.0000 
      0.0000   1.0000   0.0000 
      1.0000   0.0000   0.0000 
t :   0.0000   0.0000   0.0000 
S :   1.0000   0.0000   0.0000 
      0.0000   1.0000   0.0000 
      0.0000   0.0000   1.0000 
proper: 1

isym : 31
R :   0   0   1 
      0  -1   0 
     -1   0   0 
Rc:   0.0000   0.0000   1.0000 
      0.0000  -1.0000   0.0000 
     -1.0000   0.0000   0.0000 
t :   0.0000   0.0000   0.0000 
S :   1.0000   0.0000   0.0000 
      0.0000   1.0000   0.0000 
      0.0000   0.0000   1.0000 
proper: -1

isym : 32
R :   0   1   0 
      0   0   1 
      1   0   0 
Rc:   0.0000   1.0000   0.0000 
      0.0000   0.0000   1.0000 
      1.0000   0.0000   0.0000 
t :   0.0000   0.0000   0.0000 
S :   1.0000   0.0000   0.0000 
      0.0000   1.0000   0.0000 
      0.0000   0.0000   1.0000 
proper: 1

isym : 33
R :   0  -1   0 
      0   0  -1 
     -1   0   0 
Rc:   0.0000  -1.0000   0.0000 
      0.0000   0.0000  -1.0000 
     -1.0000   0.0000   0.0000 
t :   0.0000   0.0000   0.0000 
S :   1.0000   0.0000   0.0000 
      0.0000   1.0000   0.0000 
      0.0000   0.0000   1.0000 
proper: -1

isym : 34
R :   1   0   0 
      0   0   1 
      0  -1   0 
Rc:   1.0000   0.0000   0.0000 
      0.0000   0.0000   1.0000 
      0.0000  -1.0000   0.0000 
t :   0.0000   0.0000   0.0000 
S :   1.0000   0.0000   0.0000 
      0.0000   1.0000   0.0000 
      0.0000   0.0000   1.0000 
proper: 1

isym : 35
R :  -1   0   0 
      0   0  -1 
      0   1   0 
Rc:  -1.0000   0.0000   0.0000 
      0.0000   0.0000  -1.0000 
      0.0000   1.0000   0.0000 
t :   0.0000   0.0000   0.0000 
S :   1.0000   0.0000   0.0000 
      0.0000   1.0000   0.0000 
      0.0000   0.0000   1.0000 
proper: -1

isym : 36
R :   0  -1   0 
      0   0   1 
     -1   0   0 
Rc:   0.0000  -1.0000   0.0000 
      0.0000   0.0000   1.0000 
     -1.0000   0.0000   0.0000 
t :   0.0000   0.0000   0.0000 
S :   1.0000   0.0000   0.0000 
      0.0000   1.0000   0.0000 
      0.0000   0.0000   1.0000 
proper: 1

isym : 37
R :   0   1   0 
      0   0  -1 
      1   0   0 
Rc:   0.0000   1.0000   0.0000 
      0.0000   0.0000  -1.0000 
      1.0000   0.0000   0.0000 
t :   0.0000   0.0000   0.0000 
S :   1.0000   0.0000   0.0000 
      0.0000   1.0000   0.0000 
      0.0000   0.0000   1.0000 
proper: -1

isym : 38
R :  -1   0   0 
      0   0   1 
      0   1   0 
Rc:  -1.0000   0.0000   0.0000 
      0.0000   0.0000   1.0000 
      0.0000   1.0000   0.0000 
t :   0.0000   0.0000   0.0000 
S :   1.0000   0.0000   0.0000 
      0.0000   1.0000   0.0000 
      0.0000   0.0000   1.0000 
proper: 1

isym : 39
R :   1   0   0 
      0   0  -1 
      0  -1   0 
Rc:   1.0000   0.0000   0.0000 
      0.0000   0.0000  -1.0000 
      0.0000  -1.0000   0.0000 
t :   0.0000   0.0000   0.0000 
S :   1.0000   0.0000   0.0000 
      0.0000   1.0000   0.0000 
      0.0000   0.0000   1.0000 
proper: -1

isym : 40
R :   0  -1   0 
      0   0  -1 
      1   0   0 
Rc:   0.0000  -1.0000   0.0000 
      0.0000   0.0000  -1.0000 
      1.0000   0.0000   0.0000 
t :   0.0000   0.0000   0.0000 
S :   1.0000   0.0000   0.0000 
      0.0000   1.0000   0.0000 
      0.0000   0.0000   1.0000 
proper: 1

isym : 41
R :   0   1   0 
      0   0   1 
     -1   0   0 
Rc:   0.0000   1.0000   0.0000 
      0.0000   0.0000   1.0000 
     -1.0000   0.0000   0.0000 
t :   0.0000   0.0000   0.0000 
S :   1.0000   0.0000   0.0000 
      0.0000   1.0000   0.0000 
      0.0000   0.0000   1.0000 
proper: -1

isym : 42
R :  -1   0   0 
      0   0  -1 
      0  -1   0 
Rc:  -1.0000   0.0000   0.0000 
      0.0000   0.0000  -1.0000 
      0.0000  -1.0000   0.0000 
t :   0.0000   0.0000   0.0000 
S :   1.0000   0.0000   0.0000 
      0.0000   1.0000   0.0000 
      0.0000   0.0000   1.0000 
proper: 1

isym : 43
R :   1   0   0 
      0   0   1 
      0   1   0 
Rc:   1.0000   0.0000   0.0000 
      0.0000   0.0000   1.0000 
      0.0000   1.0000   0.0000 
t :   0.0000   0.0000   0.0000 
S :   1.0000   0.0000   0.0000 
      0.0000   1.0000   0.0000 
      0.0000   0.0000   1.0000 
proper: -1

isym : 44
R :   0   1   0 
      0   0  -1 
     -1   0   0 
Rc:   0.0000   1.0000   0.0000 
      0.0000   0.0000  -1.0000 
     -1.0000   0.0000   0.0000 
t :   0.0000   0.0000   0.0000 
S :   1.0000   0.0000   0.0000 
      0.0000   1.0000   0.0000 
      0.0000   0.0000   1.0000 
proper: 1

isym : 45
R :   0  -1   0 
      0   0   1 
      1   0   0 
Rc:   0.0000  -1.0000   0.0000 
      0.0000   0.0000   1.0000 
      1.0000   0.0000   0.0000 
t :   0.0000   0.0000   0.0000 
S :   1.0000   0.0000   0.0000 
      0.0000   1.0000   0.0000 
      0.0000   0.0000   1.0000 
proper: -1

isym : 46
R :   1   0   0 
      0   0  -1 
      0   1   0 
Rc:   1.0000   0.0000   0.0000 
      0.0000   0.0000  -1.0000 
      0.0000   1.0000   0.0000 
t :   0.0000   0.0000   0.0000 
S :   1.0000   0.0000   0.0000 
      0.0000   1.0000   0.0000 
      0.0000   0.0000   1.0000 
proper: 1

isym : 47
R :  -1   0   0 
      0   0   1 
      0  -1   0 
Rc:  -1.0000   0.0000   0.0000 
      0.0000   0.0000   1.0000 
      0.0000  -1.0000   0.0000 
t :   0.0000   0.0000   0.0000 
S :   1.0000   0.0000   0.0000 
      0.0000   1.0000   0.0000 
      0.0000   0.0000   1.0000 
proper: -1


label          : Si
--------------------------------------------------------------------------------
symbol         : Si
name           : silicon
zn             : 14
mass           : 28.085500
mt_radius      : 2.200000
num_mt_points  : 1500
grid_origin    : 0.000000
grid_name      : exponential

number of core electrons    : 2.000000
number of valence electrons : 12.000000

atomic levels (n, l, k, occupancy, core)
1  0  1    2.0000 1
2  0  1    2.0000 0
2  1  1    2.0000 0
2  1  2    4.0000 0
3  0  1    2.0000 0
3  1  1    1.0000 0
3  1  2    1.0000 0

local orbitals
[{l :  0, n :  2, enu : -5.075060, dme : 0, auto : 1}, {l :  0, n :  2, enu : -5.075060, dme : 1, auto : 1}]
[{l :  1, n :  2, enu : -3.514940, dme : 0, auto : 1}, {l :  1, n :  2, enu : -3.514940, dme : 1, auto : 1}]
[{l :  0, n :  3, enu : -0.398139, dme : 0, auto : 1}, {l :  0, n :  3, enu : -0.398139, dme : 1, auto : 1}]
[{l :  1, n :  3, enu : -0.153293, dme : 0, auto : 1}, {l :  1, n :  3, enu : -0.153293, dme : 1, auto : 1}]

augmented wave basis
[{l :  0, n :  1, enu : 0.150000, dme : 0, auto : 0}]
[{l :  1, n :  2, enu : 0.150000, dme : 0, auto : 0}]
[{l :  2, n :  3, enu : 0.150000, dme : 0, auto : 0}]
[{l :  3, n :  4, enu : 0.150000, dme : 0, auto : 0}]
[{l :  4, n :  5, enu : 0.150000, dme : 0, auto : 0}]
[{l :  5, n :  6, enu : 0.150000, dme : 0, auto : 0}]
[{l :  6, n :  7, enu : 0.150000, dme : 0, auto : 0}]
[{l :  7, n :  8, enu : 0.150000, dme : 0, auto : 0}]
[{l :  8, n :  9, enu : 0.150000, dme : 0, auto : 0}]
maximum order of aw : 1

total number of radial functions : 13
lmax of radial functions         : 8
max. number of radial functions  : 3
total number of basis functions  : 89
number of aw basis functions     : 81
number of lo basis functions     : 8
Hubbard correction               : false
spin-orbit coupling              : false

Basic information
--------------------------------------------------------------------------------
total nuclear charge               : 14
number of core electrons           : 2.000000
number of valence electrons        : 12.000000
total number of electrons          : 14.000000
extra charge                       : 0.000000
total number of aw basis functions : 81
total number of lo basis functions : 8
number of first-variational states : 16
number of bands                    : 16
number of spins                    : 1
number of magnetic dimensions      : 0
number of spinor components        : 1
number of spinors per band index   : 1
lmax_apw                           : 8
lmax_rho                           : 8
lmax_pot                           : 8
lmax_rf                            : 8
smearing type                      : gaussian
smearing width                     : 0.010000
cyclic block size                  : 16
|G+k| cutoff                       : 3.000000
symmetry                           : true
so_correction                      : false
valence relativity                 : zora
core relativity                    : Dirac
standard eigen-value solver        : LAPACK
generalized eigen-value solver     : LAPACK
processing unit                    : CPU

iterative solver                   : exact
number of steps                    : 20
subspace size                      : 2
early restart ratio                : 0.50

spglib version: 1.16.2
HDF5 version: 1.10.5
Libxc version: 4.3.4

XC functionals
==============

total number of k-points : 1
--------------------------------------------------------------------------------
  ik                vk                    weight  num_gkvec   gklo_basis_size
--------------------------------------------------------------------------------
   0     0.0000   0.0000   0.0000       1.000000         57                65
[find] 
[find] density_tol       : 1e-06
[find] energy_tol        : 1e-06
[find] initial_tolerance : 0.01
[find] num_dft_iter      : 1
[find] 
[find] +------------------------------+
[find] | SCF iteration   0 out of   1
[find] +------------------------------+
[find] 

Linearization energies
Atom : Si, class id : 0
augmented waves
local orbitals
n =  2   l =  0   order = 0   enu =    -3.020076  +
n =  2   l =  0   order = 1   enu =    -3.020076  +
n =  2   l =  1   order = 0   enu =    -1.428303  +
n =  2   l =  1   order = 1   enu =    -1.428303  +
n =  3   l =  0   order = 0   enu =     1.051278  +
n =  3   l =  0   order = 1   enu =     1.051278  +
n =  3   l =  1   order = 0   enu =     1.506758  +
n =  3   l =  1   order = 1   enu =     1.506758  +

[solve] Lowest band energies
ik :  0,    -3.020062   -1.427115   -1.427115   -1.427115    0.202044    0.936554    0.936554    0.952843    0.952843    0.952843
[find] 
[find] Charges and magnetic moments
[find] --------------------------------------------------------------------------------
[find] atom      charge    core leakage
[find] --------------------------------------------------------------------------------
[find]    0   11.589042    0.000000e+00
[find] 
[find] total core leakage    : 0.00000000e+00
[find] interstitial charge   : 2.410958
[find] total charge          : 14.000000
[find] 
[find] Energy
[find] --------------------------------------------------------------------------------
[find] valence_eval_sum               :     -12.32467548
[find] core_eval_sum                  :    -119.31189106
[find] kinetic energy                 :     278.42679688
[find] enuc                           :    -333.05785130
[find] <rho|V^{XC}>                   :       0.00000000
[find] <rho|E^{XC}>                   :       0.00000000
[find] <mag|B^{XC}>                   :       0.00000000
[find] <rho|V^{H}>                    :    -410.06336341
[find] smearing (-TS)                 :      -0.01237197
[find] SCF correction                 :      -9.31110628
[find] Total energy                   :    -268.97384241 (Ha),    -537.94768482 (Ry)
[find] 
[find] band gap (eV)                  :       0.00000000
[find] Efermi                         :       0.93629787
[find] 
[find] iteration : 0, RMS : 1.322058094458e-01, energy difference : -2.689738424093e+02
[find] 
[find] Charges and magnetic moments
[find] --------------------------------------------------------------------------------
[find] atom      charge    core leakage
[find] --------------------------------------------------------------------------------
[find]    0   11.589042    0.000000e+00
[find] 
[find] total core leakage    : 0.00000000e+00
[find] interstitial charge   : 2.410958
[find] total charge          : 14.000000
[find] 
[find] Energy
[find] --------------------------------------------------------------------------------
[find] valence_eval_sum               :     -12.32467548
[find] core_eval_sum                  :    -119.31189106
[find] kinetic energy                 :     278.42679688
[find] enuc                           :    -333.05785130
[find] <rho|V^{XC}>                   :       0.00000000
[find] <rho|E^{XC}>                   :       0.00000000
[find] <mag|B^{XC}>                   :       0.00000000
[find] <rho|V^{H}>                    :    -410.06336341
[find] smearing (-TS)                 :      -0.01237197
[find] SCF correction                 :      -9.31110628
[find] Total energy                   :    -268.97384241 (Ha),    -537.94768482 (Ry)
[find] 
[find] band gap (eV)                  :       0.00000000
[find] Efermi                         :       0.93629787
[find] 
 <BigDFT> log of the run will be written in logfile: ./log.yaml
 <BigDFT> Logfile existing, renamed into: ./logfiles/log.11:58:04.240.yaml
[~DFT_ground_state] local op. applied: 0
[~DFT_ground_state] evp. work count: 0.000000
[~DFT_ground_state] number of iterative solver steps: 0
